%YAML 1.1
%TAG !u! tag:unity3d.com,2011:
--- !u!114 &11400000
MonoBehaviour:
  m_ObjectHideFlags: 0
  m_CorrespondingSourceObject: {fileID: 0}
  m_PrefabInstance: {fileID: 0}
  m_PrefabAsset: {fileID: 0}
  m_GameObject: {fileID: 0}
  m_Enabled: 1
  m_EditorHideFlags: 0
  m_Script: {fileID: 11500000, guid: fc3b6d761e0e6934a8bb7204e40d64d0, type: 3}
  m_Name: Pitey2
  m_EditorClassIdentifier: 
  cardname: Pitey piranha
  price: 600
  dmg: 4
  range: 2
  att_speed: 3
  special: Creep
  special_color: {r: 1, g: 0, b: 0, a: 1}
  card_commonness: 1
  card_rarity: 2
  card_bg: {fileID: -3514991577617587260, guid: 8f5d66e68e65b71478b97eb4ed1a5c28,
    type: 3}
  Icon: {fileID: 21300012, guid: a62595a84f8703646907a0b7754b124c, type: 3}
